12-Apr-2012, 5, 116, 67, 17, 50
12-Apr-2012, 5, 116, 67, 17, 50
13-Apr-2012, 5, 116, 67, 17, 50
03-Aug-2012, 6, 137, 82, 19, 63
03-Aug-2012, 6, 140, 83, 19, 64
13-Aug-2012, 6, 141, 84, 19, 65
23-Aug-2012, 6, 143, 85, 19, 66
23-Aug-2012, 6, 142, 84, 19, 65
27-Aug-2012, 6, 145, 86, 19, 67
27-Aug-2012, 6, 146, 86, 19, 67
30-Aug-2012, 6, 146, 87, 19, 68
04-Dec-2012, 7, 400, 328, 242, 86
05-Dec-2012, 7, 401, 328, 242, 86
06-Dec-2012, 7, 402, 328, 242, 86
07-Dec-2012, 7, 402, 328, 242, 86
11-Dec-2012, 7, 404, 330, 242, 88
13-Dec-2012, 7, 404, 330, 242, 88
09-Jul-2012, 6, 128, 75, 17, 58
20-Jul-2012, 6, 132, 77, 17, 60
20-Jul-2012, 6, 129, 76, 17, 59
30-Jul-2012, 6, 133, 78, 17, 61
30-Jul-2012, 6, 135, 80, 17, 63
04-Jun-2012, 6, 121, 71, 17, 54
04-Jun-2012, 6, 122, 72, 17, 55
11-Jun-2012, 6, 122, 72, 17, 55
11-Jun-2012, 6, 123, 73, 17, 56
20-Jun-2012, 6, 123, 73, 17, 56
21-Jun-2012, 6, 124, 73, 17, 56
26-Jun-2012, 6, 125, 74, 17, 57
08-May-2012, 5, 119, 69, 17, 52
16-May-2012, 5, 120, 70, 17, 53
24-May-2012, 6, 121, 71, 17, 54
24-May-2012, 6, 121, 71, 17, 54
24-May-2012, 5, 120, 70, 17, 53
29-May-2012, 6, 122, 72, 17, 55
12-Nov-2012, 6, 391, 323, 242, 81
15-Nov-2012, 7, 391, 323, 242, 81
15-Nov-2012, 7, 396, 324, 242, 82
19-Nov-2012, 7, 399, 327, 242, 85
03-Oct-2012, 6, 375, 313, 241, 72
08-Oct-2012, 6, 376, 314, 241, 73
09-Oct-2012, 6, 382, 316, 241, 75
18-Oct-2012, 6, 383, 317, 241, 76
22-Oct-2012, 6, 386, 320, 241, 79
22-Oct-2012, 6, 384, 318, 241, 77
24-Oct-2012, 6, 386, 320, 241, 79
30-Oct-2012, 6, 387, 321, 242, 79
30-Oct-2012, 6, 388, 321, 242, 79
31-Oct-2012, 6, 389, 321, 242, 79
04-Sep-2012, 6, 147, 88, 19, 69
04-Sep-2012, 6, 147, 88, 19, 69
07-Sep-2012, 6, 149, 89, 19, 70
10-Sep-2012, 6, 150, 90, 19, 71
14-Sep-2012, 6, 373, 312, 241, 71
02-Apr-2013, 7, 423, 342, 243, 99
15-Apr-2013, 7, 424, 343, 243, 100
05-Aug-2013, 7, 459, 365, 243, 122
12-Aug-2013, 7, 460, 366, 243, 123
21-Aug-2013, 7, 462, 367, 244, 123
26-Aug-2013, 7, 464, 369, 244, 125
26-Aug-2013, 7, 465, 370, 244, 126
27-Aug-2013, 7, 466, 370, 244, 126
27-Aug-2013, 7, 465, 370, 244, 126
28-Aug-2013, 7, 465, 370, 244, 126
30-Aug-2013, 7, 466, 371, 244, 127
02-Dec-2013, 8, 495, 391, 244, 147
02-Dec-2013, 8, 496, 392, 244, 148
05-Dec-2013, 8, 499, 392, 244, 148
07-Dec-2013, 8, 501, 394, 244, 150
11-Dec-2013, 8, 507, 395, 244, 151
12-Dec-2013, 8, 508, 396, 244, 152
12-Dec-2013, 8, 509, 397, 244, 153
18-Dec-2013, 8, 516, 404, 244, 160
01-Feb-2013, 7, 408, 333, 242, 91
04-Feb-2013, 7, 409, 334, 242, 92
05-Feb-2013, 7, 410, 334, 242, 92
07-Feb-2013, 7, 409, 333, 242, 91
07-Feb-2013, 7, 411, 334, 242, 92
11-Feb-2013, 7, 412, 335, 242, 93
19-Feb-2013, 7, 413, 336, 242, 94
20-Feb-2013, 7, 414, 337, 242, 95
22-Feb-2013, 7, 415, 338, 242, 96
08-Jan-2013, 7, 404, 330, 242, 88
14-Jan-2013, 7, 404, 330, 242, 88
14-Jan-2013, 7, 404, 330, 242, 88
15-Jan-2013, 7, 404, 330, 242, 88
24-Jan-2013, 7, 404, 330, 242, 88
29-Jan-2013, 7, 406, 332, 242, 90
30-Jan-2013, 7, 407, 333, 242, 91
01-Jul-2013, 7, 452, 359, 243, 116
02-Jul-2013, 7, 453, 360, 243, 117
10-Jul-2013, 7, 454, 360, 243, 117
15-Jul-2013, 7, 454, 360, 243, 117
15-Jul-2013, 7, 455, 361, 243, 118
25-Jul-2013, 7, 456, 362, 243, 119
25-Jul-2013, 7, 457, 363, 243, 120
26-Jul-2013, 7, 457, 363, 243, 120
30-Jul-2013, 7, 458, 364, 243, 121
06-Jun-2013, 7, 439, 347, 243, 104
06-Jun-2013, 7, 440, 348, 243, 105
07-Jun-2013, 7, 441, 349, 243, 106
10-Jun-2013, 7, 443, 351, 243, 108
11-Jun-2013, 7, 444, 352, 243, 109
20-Jun-2013, 7, 445, 353, 243, 110
24-Jun-2013, 7, 447, 355, 243, 112
27-Jun-2013, 7, 449, 356, 243, 113
05-Mar-2013, 7, 417, 340, 242, 98
14-Mar-2013, 7, 418, 341, 242, 99
18-Mar-2013, 7, 416, 340, 242, 98
22-Mar-2013, 7, 419, 341, 242, 99
25-Mar-2013, 7, 422, 341, 242, 99
28-Mar-2013, 7, 422, 341, 242, 99
06-May-2013, 7, 427, 345, 243, 102
06-May-2013, 7, 425, 344, 243, 101
16-May-2013, 7, 428, 346, 243, 103
16-May-2013, 7, 428, 346, 243, 103
24-May-2013, 7, 429, 346, 243, 103
28-May-2013, 7, 438, 347, 243, 104
05-Nov-2013, 8, 483, 387, 244, 143
08-Nov-2013, 8, 484, 388, 244, 144
11-Nov-2013, 8, 485, 389, 244, 145
13-Nov-2013, 8, 486, 389, 244, 145
14-Nov-2013, 8, 486, 389, 244, 145
18-Nov-2013, 8, 488, 390, 244, 146
20-Nov-2013, 8, 493, 391, 244, 147
21-Nov-2013, 8, 498, 392, 244, 148
26-Nov-2013, 8, 496, 392, 244, 148
27-Nov-2013, 8, 497, 393, 244, 149
01-Oct-2013, 7, 479, 383, 244, 139
03-Oct-2013, 7, 481, 385, 244, 141
08-Oct-2013, 7, 482, 385, 244, 141
09-Oct-2013, 7, 483, 386, 244, 142
18-Oct-2013, 7, 482, 386, 244, 142
28-Oct-2013, 8, 483, 387, 244, 143
03-Sep-2013, 7, 466, 371, 244, 127
03-Sep-2013, 7, 466, 371, 244, 127
04-Sep-2013, 7, 467, 371, 244, 127
05-Sep-2013, 7, 468, 372, 244, 128
10-Sep-2013, 7, 469, 373, 244, 129
12-Sep-2013, 7, 470, 374, 244, 130
12-Sep-2013, 7, 470, 374, 244, 130
13-Sep-2013, 7, 471, 375, 244, 131
18-Sep-2013, 7, 472, 376, 244, 132
24-Sep-2013, 7, 473, 377, 244, 133
30-Sep-2013, 7, 476, 380, 244, 136
01-Apr-2014, 8, 551, 432, 245, 187
03-Apr-2014, 8, 552, 433, 245, 188
09-Apr-2014, 8, 561, 437, 245, 192
10-Apr-2014, 8, 564, 439, 246, 193
10-Apr-2014, 8, 563, 438, 245, 193
14-Apr-2014, 8, 571, 443, 246, 197
16-Apr-2014, 8, 573, 445, 246, 199
21-Apr-2014, 8, 576, 448, 246, 202
24-Apr-2014, 8, 577, 449, 246, 203
29-Apr-2014, 8, 579, 451, 246, 205
08-Aug-2014, 9, 640, 496, 260, 236
11-Aug-2014, 9, 642, 498, 262, 236
12-Aug-2014, 9, 676, 532, 262, 270
13-Aug-2014, 9, 824, 680, 262, 418
13-Aug-2014, 9, 732, 588, 262, 326
15-Aug-2014, 9, 839, 695, 262, 433
18-Aug-2014, 9, 859, 715, 262, 453
19-Aug-2014, 9, 866, 717, 262, 455
19-Aug-2014, 9, 867, 717, 262, 455
25-Aug-2014, 9, 897, 747, 262, 485
26-Aug-2014, 9, 899, 747, 262, 485
27-Aug-2014, 9, 915, 763, 262, 501
03-Feb-2014, 8, 526, 412, 244, 168
03-Feb-2014, 8, 526, 412, 244, 168
03-Feb-2014, 8, 528, 413, 244, 169
03-Feb-2014, 8, 529, 414, 245, 169
04-Feb-2014, 8, 529, 414, 245, 169
06-Feb-2014, 8, 530, 415, 245, 170
07-Feb-2014, 8, 531, 416, 245, 171
20-Feb-2014, 8, 533, 417, 245, 172
25-Feb-2014, 8, 534, 418, 245, 173
28-Feb-2014, 8, 535, 419, 245, 174
06-Jan-2014, 8, 519, 406, 244, 162
06-Jan-2014, 8, 519, 406, 244, 162
06-Jan-2014, 8, 518, 405, 244, 161
07-Jan-2014, 8, 519, 406, 244, 162
07-Jan-2014, 8, 518, 405, 244, 161
17-Jan-2014, 8, 522, 408, 244, 164
22-Jan-2014, 8, 522, 408, 244, 164
24-Jan-2014, 8, 525, 411, 244, 167
02-Jul-2014, 8, 622, 485, 260, 225
02-Jul-2014, 9, 624, 486, 260, 226
08-Jul-2014, 9, 625, 487, 260, 227
14-Jul-2014, 9, 627, 489, 260, 229
21-Jul-2014, 9, 627, 489, 260, 229
24-Jul-2014, 9, 630, 491, 260, 231
28-Jul-2014, 9, 638, 494, 260, 234
28-Jul-2014, 9, 631, 491, 260, 231
03-Jun-2014, 8, 612, 476, 261, 215
10-Jun-2014, 8, 618, 481, 261, 220
11-Jun-2014, 8, 617, 480, 260, 220
16-Jun-2014, 8, 618, 481, 260, 221
23-Jun-2014, 8, 619, 482, 260, 222
12-Mar-2014, 8, 537, 420, 245, 175
20-Mar-2014, 8, 549, 431, 245, 186
24-Mar-2014, 8, 550, 431, 245, 186
27-Mar-2014, 8, 551, 432, 245, 187
05-May-2014, 8, 580, 452, 246, 206
12-May-2014, 8, 582, 453, 246, 207
13-May-2014, 8, 586, 455, 246, 209
22-May-2014, 8, 608, 473, 261, 212
28-May-2014, 8, 609, 474, 261, 213
28-May-2014, 8, 613, 477, 261, 216
03-Nov-2014, 10, 1259, 1005, 262, 743
04-Nov-2014, 10, 1258, 1004, 262, 742
06-Oct-2014, 9, 1063, 908, 262, 646
07-Oct-2014, 9, 1063, 908, 262, 646
07-Oct-2014, 9, 1063, 908, 262, 646
13-Oct-2014, 9, 1147, 909, 262, 647
16-Oct-2014, 9, 1181, 943, 262, 681
24-Oct-2014, 9, 1182, 943, 262, 681
27-Oct-2014, 10, 1255, 1001, 262, 739
27-Oct-2014, 10, 1198, 944, 262, 682
27-Oct-2014, 10, 1198, 944, 262, 682
02-Sep-2014, 9, 943, 791, 262, 529
03-Sep-2014, 9, 945, 792, 262, 530
03-Sep-2014, 9, 944, 791, 262, 529
15-Sep-2014, 9, 988, 835, 262, 573
23-Sep-2014, 9, 1028, 873, 262, 611
23-Sep-2014, 9, 1025, 872, 262, 610
25-Sep-2014, 9, 1028, 873, 262, 611
